<?xml version="1.0" encoding="utf-8"?>
<!DOCTYPE eagle SYSTEM "eagle.dtd">
<eagle version="7.6.0">
<drawing>
<settings>
<setting alwaysvectorfont="no"/>
<setting verticaltext="up"/>
</settings>
<grid distance="0.1" unitdist="inch" unit="inch" style="lines" multiple="1" display="no" altdistance="0.01" altunitdist="inch" altunit="inch"/>
<layers>
<layer number="1" name="Top" color="4" fill="1" visible="no" active="no"/>
<layer number="2" name="Route2" color="1" fill="3" visible="no" active="no"/>
<layer number="3" name="Route3" color="4" fill="3" visible="no" active="no"/>
<layer number="4" name="Route4" color="1" fill="4" visible="no" active="no"/>
<layer number="5" name="Route5" color="4" fill="4" visible="no" active="no"/>
<layer number="6" name="Route6" color="1" fill="8" visible="no" active="no"/>
<layer number="7" name="Route7" color="4" fill="8" visible="no" active="no"/>
<layer number="8" name="Route8" color="1" fill="2" visible="no" active="no"/>
<layer number="9" name="Route9" color="4" fill="2" visible="no" active="no"/>
<layer number="10" name="Route10" color="1" fill="7" visible="no" active="no"/>
<layer number="11" name="Route11" color="4" fill="7" visible="no" active="no"/>
<layer number="12" name="Route12" color="1" fill="5" visible="no" active="no"/>
<layer number="13" name="Route13" color="4" fill="5" visible="no" active="no"/>
<layer number="14" name="Route14" color="1" fill="6" visible="no" active="no"/>
<layer number="15" name="Route15" color="4" fill="6" visible="no" active="no"/>
<layer number="16" name="Bottom" color="1" fill="1" visible="no" active="no"/>
<layer number="17" name="Pads" color="2" fill="1" visible="no" active="no"/>
<layer number="18" name="Vias" color="2" fill="1" visible="no" active="no"/>
<layer number="19" name="Unrouted" color="6" fill="1" visible="no" active="no"/>
<layer number="20" name="Dimension" color="15" fill="1" visible="no" active="no"/>
<layer number="21" name="tPlace" color="7" fill="1" visible="no" active="no"/>
<layer number="22" name="bPlace" color="7" fill="1" visible="no" active="no"/>
<layer number="23" name="tOrigins" color="15" fill="1" visible="no" active="no"/>
<layer number="24" name="bOrigins" color="15" fill="1" visible="no" active="no"/>
<layer number="25" name="tNames" color="7" fill="1" visible="no" active="no"/>
<layer number="26" name="bNames" color="7" fill="1" visible="no" active="no"/>
<layer number="27" name="tValues" color="7" fill="1" visible="no" active="no"/>
<layer number="28" name="bValues" color="7" fill="1" visible="no" active="no"/>
<layer number="29" name="tStop" color="7" fill="3" visible="no" active="no"/>
<layer number="30" name="bStop" color="7" fill="6" visible="no" active="no"/>
<layer number="31" name="tCream" color="7" fill="4" visible="no" active="no"/>
<layer number="32" name="bCream" color="7" fill="5" visible="no" active="no"/>
<layer number="33" name="tFinish" color="6" fill="3" visible="no" active="no"/>
<layer number="34" name="bFinish" color="6" fill="6" visible="no" active="no"/>
<layer number="35" name="tGlue" color="7" fill="4" visible="no" active="no"/>
<layer number="36" name="bGlue" color="7" fill="5" visible="no" active="no"/>
<layer number="37" name="tTest" color="7" fill="1" visible="no" active="no"/>
<layer number="38" name="bTest" color="7" fill="1" visible="no" active="no"/>
<layer number="39" name="tKeepout" color="4" fill="11" visible="no" active="no"/>
<layer number="40" name="bKeepout" color="1" fill="11" visible="no" active="no"/>
<layer number="41" name="tRestrict" color="4" fill="10" visible="no" active="no"/>
<layer number="42" name="bRestrict" color="1" fill="10" visible="no" active="no"/>
<layer number="43" name="vRestrict" color="2" fill="10" visible="no" active="no"/>
<layer number="44" name="Drills" color="7" fill="1" visible="no" active="no"/>
<layer number="45" name="Holes" color="7" fill="1" visible="no" active="no"/>
<layer number="46" name="Milling" color="3" fill="1" visible="no" active="no"/>
<layer number="47" name="Measures" color="7" fill="1" visible="no" active="no"/>
<layer number="48" name="Document" color="7" fill="1" visible="no" active="no"/>
<layer number="49" name="Reference" color="7" fill="1" visible="no" active="no"/>
<layer number="51" name="tDocu" color="7" fill="1" visible="no" active="no"/>
<layer number="52" name="bDocu" color="7" fill="1" visible="no" active="no"/>
<layer number="90" name="Modules" color="5" fill="1" visible="yes" active="yes"/>
<layer number="91" name="Nets" color="2" fill="1" visible="yes" active="yes"/>
<layer number="92" name="Busses" color="1" fill="1" visible="yes" active="yes"/>
<layer number="93" name="Pins" color="2" fill="1" visible="no" active="yes"/>
<layer number="94" name="Symbols" color="4" fill="1" visible="yes" active="yes"/>
<layer number="95" name="Names" color="7" fill="1" visible="yes" active="yes"/>
<layer number="96" name="Values" color="7" fill="1" visible="yes" active="yes"/>
<layer number="97" name="Info" color="7" fill="1" visible="yes" active="yes"/>
<layer number="98" name="Guide" color="6" fill="1" visible="yes" active="yes"/>
</layers>
<schematic xreflabel="%F%N/%S.%C%R" xrefpart="/%S.%C%R">
<libraries>
<library name="UNLibrary">
<packages>
<package name="RELAY">
<description>&lt;b&gt;AUTOMOTIVE QUIET RELAY&lt;/b&gt; NAiS&lt;p&gt;
Source: http://www.mew-europe.com/.. en_ds_61208_0000.pdf</description>
<pad name="NO" x="-6.05" y="6" drill="1.5" rot="R180"/>
<pad name="NC" x="-6.05" y="-6" drill="1.5" rot="R180"/>
<pad name="1" x="6.15" y="-6" drill="1.5" rot="R180"/>
<pad name="2" x="6.15" y="6" drill="1.5" rot="R180"/>
<pad name="C" x="8.15" y="0" drill="1.5" rot="R180"/>
<text x="-2.54" y="5.08" size="1.27" layer="25">&gt;NAME</text>
<text x="-2.54" y="-6.35" size="1.27" layer="27">&gt;VALUE</text>
<wire x1="-9.55" y1="-7.75" x2="9.55" y2="-7.75" width="0.127" layer="21"/>
<wire x1="9.55" y1="-7.75" x2="9.55" y2="7.75" width="0.127" layer="21"/>
<wire x1="9.55" y1="7.75" x2="-9.55" y2="7.75" width="0.127" layer="21"/>
<wire x1="-9.55" y1="7.75" x2="-9.55" y2="-7.75" width="0.127" layer="21"/>
<wire x1="-6.35" y1="2.54" x2="-6.35" y2="4.445" width="0.127" layer="21"/>
<wire x1="-6.35" y1="-4.445" x2="-6.35" y2="-2.54" width="0.127" layer="21"/>
<wire x1="-2.54" y1="0" x2="-6.35" y2="-2.54" width="0.127" layer="21"/>
<wire x1="5.08" y1="-4.445" x2="5.08" y2="-3.175" width="0.127" layer="21"/>
<wire x1="5.08" y1="-3.175" x2="3.81" y2="-1.905" width="0.127" layer="21" curve="90"/>
<wire x1="3.81" y1="-1.905" x2="3.81" y2="-3.175" width="0.127" layer="21" curve="180"/>
<wire x1="3.81" y1="-3.175" x2="5.08" y2="-1.905" width="0.127" layer="21" curve="90"/>
<wire x1="5.08" y1="-1.905" x2="5.08" y2="-0.635" width="0.127" layer="21"/>
<wire x1="5.08" y1="-0.635" x2="3.81" y2="0.635" width="0.127" layer="21" curve="90"/>
<wire x1="3.81" y1="0.635" x2="3.81" y2="-0.635" width="0.127" layer="21" curve="180"/>
<wire x1="3.81" y1="-0.635" x2="5.08" y2="0.635" width="0.127" layer="21" curve="90"/>
<wire x1="5.08" y1="0.635" x2="5.08" y2="1.905" width="0.127" layer="21"/>
<wire x1="5.08" y1="1.905" x2="3.81" y2="3.175" width="0.127" layer="21" curve="90"/>
<wire x1="3.81" y1="3.175" x2="3.81" y2="1.905" width="0.127" layer="21" curve="180"/>
<wire x1="3.81" y1="1.905" x2="5.08" y2="3.175" width="0.127" layer="21" curve="90"/>
<wire x1="5.08" y1="3.175" x2="5.08" y2="3.81" width="0.127" layer="21"/>
<wire x1="-2.54" y1="0" x2="6.35" y2="0" width="0.127" layer="21"/>
<circle x="-6.35" y="2.54" radius="0.635" width="0.127" layer="21"/>
<circle x="-6.35" y="-2.54" radius="0.635" width="0.127" layer="21"/>
<circle x="5.08" y="3.81" radius="0.635" width="0.127" layer="21"/>
<circle x="6.35" y="0" radius="0.635" width="0.127" layer="21"/>
<circle x="5.08" y="-4.445" radius="0.635" width="0.127" layer="21"/>
</package>
</packages>
<symbols>
<symbol name="RELAY_POWER">
<wire x1="-3.81" y1="-1.905" x2="-1.905" y2="-1.905" width="0.254" layer="94"/>
<wire x1="3.81" y1="-1.905" x2="3.81" y2="1.905" width="0.254" layer="94"/>
<wire x1="3.81" y1="1.905" x2="1.905" y2="1.905" width="0.254" layer="94"/>
<wire x1="-3.81" y1="1.905" x2="-3.81" y2="-1.905" width="0.254" layer="94"/>
<wire x1="0" y1="-2.54" x2="0" y2="-1.905" width="0.1524" layer="94"/>
<wire x1="0" y1="-1.905" x2="3.81" y2="-1.905" width="0.254" layer="94"/>
<wire x1="0" y1="2.54" x2="0" y2="1.905" width="0.1524" layer="94"/>
<wire x1="0" y1="1.905" x2="-3.81" y2="1.905" width="0.254" layer="94"/>
<wire x1="-1.905" y1="-1.905" x2="1.905" y2="1.905" width="0.1524" layer="94"/>
<wire x1="-1.905" y1="-1.905" x2="0" y2="-1.905" width="0.254" layer="94"/>
<wire x1="1.905" y1="1.905" x2="0" y2="1.905" width="0.254" layer="94"/>
<text x="1.27" y="2.921" size="1.778" layer="96">&gt;VALUE</text>
<text x="1.27" y="5.08" size="1.778" layer="95">&gt;PART</text>
<pin name="2" x="0" y="-5.08" visible="pad" length="short" direction="pas" rot="R90"/>
<pin name="1" x="0" y="5.08" visible="pad" length="short" direction="pas" rot="R270"/>
</symbol>
<symbol name="RELAY_SWITCH">
<wire x1="3.175" y1="5.08" x2="1.905" y2="5.08" width="0.254" layer="94"/>
<wire x1="-3.175" y1="5.08" x2="-1.905" y2="5.08" width="0.254" layer="94"/>
<wire x1="0" y1="1.27" x2="2.54" y2="5.715" width="0.254" layer="94"/>
<wire x1="0" y1="1.27" x2="0" y2="0" width="0.254" layer="94"/>
<circle x="0" y="1.27" radius="0.127" width="0.4064" layer="94"/>
<text x="2.54" y="0" size="1.778" layer="95">&gt;PART</text>
<pin name="O" x="5.08" y="5.08" visible="pad" length="short" direction="pas" rot="R180"/>
<pin name="S" x="-5.08" y="5.08" visible="pad" length="short" direction="pas"/>
<pin name="P" x="0" y="-2.54" visible="pad" length="short" direction="pas" rot="R90"/>
</symbol>
</symbols>
<devicesets>
<deviceset name="RELAY" prefix="K">
<description>&lt;b&gt;AUTOMOTIVE QUIET RELAY&lt;/b&gt; NAiS&lt;p&gt;
Source: http://www.mew-europe.com/.. en_ds_61208_0000.pdf</description>
<gates>
<gate name="1" symbol="RELAY_POWER" x="-7.62" y="0" addlevel="must"/>
<gate name="2" symbol="RELAY_SWITCH" x="10.16" y="0" addlevel="always"/>
</gates>
<devices>
<device name="" package="RELAY">
<connects>
<connect gate="1" pin="1" pad="1"/>
<connect gate="1" pin="2" pad="2"/>
<connect gate="2" pin="O" pad="NC"/>
<connect gate="2" pin="P" pad="C"/>
<connect gate="2" pin="S" pad="NO"/>
</connects>
<technologies>
<technology name="">
<attribute name="MF" value="" constant="no"/>
<attribute name="MPN" value="" constant="no"/>
<attribute name="OC_FARNELL" value="unknown" constant="no"/>
<attribute name="OC_NEWARK" value="unknown" constant="no"/>
</technology>
</technologies>
</device>
</devices>
</deviceset>
</devicesets>
</library>
<library name="con-wago-500">
<description>&lt;b&gt;Wago Screw Clamps&lt;/b&gt;&lt;p&gt;
Grid 5.00 mm&lt;p&gt;
&lt;author&gt;Created by librarian@cadsoft.de&lt;/author&gt;</description>
<packages>
<package name="W237-102">
<description>&lt;b&gt;WAGO SCREW CLAMP&lt;/b&gt;</description>
<wire x1="-3.491" y1="-2.286" x2="-1.484" y2="-0.279" width="0.254" layer="51"/>
<wire x1="1.488" y1="-2.261" x2="3.469" y2="-0.254" width="0.254" layer="51"/>
<wire x1="-4.989" y1="-5.461" x2="4.993" y2="-5.461" width="0.1524" layer="21"/>
<wire x1="4.993" y1="3.734" x2="4.993" y2="3.531" width="0.1524" layer="21"/>
<wire x1="4.993" y1="3.734" x2="-4.989" y2="3.734" width="0.1524" layer="21"/>
<wire x1="-4.989" y1="-5.461" x2="-4.989" y2="-3.073" width="0.1524" layer="21"/>
<wire x1="-4.989" y1="-3.073" x2="-3.389" y2="-3.073" width="0.1524" layer="21"/>
<wire x1="-3.389" y1="-3.073" x2="-1.611" y2="-3.073" width="0.1524" layer="51"/>
<wire x1="-1.611" y1="-3.073" x2="1.615" y2="-3.073" width="0.1524" layer="21"/>
<wire x1="3.393" y1="-3.073" x2="4.993" y2="-3.073" width="0.1524" layer="21"/>
<wire x1="-4.989" y1="-3.073" x2="-4.989" y2="3.531" width="0.1524" layer="21"/>
<wire x1="4.993" y1="-3.073" x2="4.993" y2="-5.461" width="0.1524" layer="21"/>
<wire x1="-4.989" y1="3.531" x2="4.993" y2="3.531" width="0.1524" layer="21"/>
<wire x1="-4.989" y1="3.531" x2="-4.989" y2="3.734" width="0.1524" layer="21"/>
<wire x1="4.993" y1="3.531" x2="4.993" y2="-3.073" width="0.1524" layer="21"/>
<wire x1="1.615" y1="-3.073" x2="3.393" y2="-3.073" width="0.1524" layer="51"/>
<circle x="-2.5" y="-1.27" radius="1.4986" width="0.1524" layer="51"/>
<circle x="-2.5" y="2.2098" radius="0.508" width="0.1524" layer="21"/>
<circle x="2.5038" y="-1.27" radius="1.4986" width="0.1524" layer="51"/>
<circle x="2.5038" y="2.2098" radius="0.508" width="0.1524" layer="21"/>
<pad name="1" x="-2.5" y="-1.27" drill="1.1938" shape="long" rot="R90"/>
<pad name="2" x="2.5" y="-1.27" drill="1.1938" shape="long" rot="R90"/>
<text x="-5.04" y="-7.62" size="1.27" layer="27" ratio="10">&gt;VALUE</text>
<text x="-3.8462" y="-5.0038" size="1.27" layer="25" ratio="10">&gt;NAME</text>
<text x="-4.532" y="0.635" size="1.27" layer="21" ratio="10">1</text>
<text x="0.421" y="0.635" size="1.27" layer="21" ratio="10">2</text>
</package>
<package name="W237-103">
<description>&lt;b&gt;WAGO SCREW CLAMP&lt;/b&gt;</description>
<wire x1="4.093" y1="-2.255" x2="5.897" y2="-0.299" width="0.254" layer="51"/>
<wire x1="-0.911" y1="-2.331" x2="0.994" y2="-0.299" width="0.254" layer="51"/>
<wire x1="-5.991" y1="-2.306" x2="-3.984" y2="-0.299" width="0.254" layer="51"/>
<wire x1="-7.489" y1="-5.481" x2="7.497" y2="-5.481" width="0.1524" layer="21"/>
<wire x1="7.497" y1="3.714" x2="7.497" y2="3.511" width="0.1524" layer="21"/>
<wire x1="7.497" y1="3.714" x2="-7.489" y2="3.714" width="0.1524" layer="21"/>
<wire x1="-7.489" y1="-5.481" x2="-7.489" y2="-3.093" width="0.1524" layer="21"/>
<wire x1="-7.489" y1="-3.093" x2="-5.889" y2="-3.093" width="0.1524" layer="21"/>
<wire x1="-5.889" y1="-3.093" x2="-4.111" y2="-3.093" width="0.1524" layer="51"/>
<wire x1="-4.111" y1="-3.093" x2="-0.885" y2="-3.093" width="0.1524" layer="21"/>
<wire x1="0.893" y1="-3.093" x2="4.119" y2="-3.093" width="0.1524" layer="21"/>
<wire x1="5.897" y1="-3.093" x2="7.497" y2="-3.093" width="0.1524" layer="21"/>
<wire x1="-7.489" y1="-3.093" x2="-7.489" y2="3.511" width="0.1524" layer="21"/>
<wire x1="7.497" y1="-3.093" x2="7.497" y2="-5.481" width="0.1524" layer="21"/>
<wire x1="7.497" y1="3.511" x2="-7.489" y2="3.511" width="0.1524" layer="21"/>
<wire x1="7.497" y1="3.511" x2="7.497" y2="-3.093" width="0.1524" layer="21"/>
<wire x1="-7.489" y1="3.511" x2="-7.489" y2="3.714" width="0.1524" layer="21"/>
<wire x1="-0.885" y1="-3.093" x2="0.893" y2="-3.093" width="0.1524" layer="51"/>
<wire x1="4.119" y1="-3.093" x2="5.897" y2="-3.093" width="0.1524" layer="51"/>
<circle x="-5" y="-1.29" radius="1.4986" width="0.1524" layer="51"/>
<circle x="5.0076" y="-1.29" radius="1.4986" width="0.1524" layer="51"/>
<circle x="-5" y="2.1898" radius="0.508" width="0.1524" layer="21"/>
<circle x="5.0076" y="2.1898" radius="0.508" width="0.1524" layer="21"/>
<circle x="0.0038" y="-1.29" radius="1.4986" width="0.1524" layer="51"/>
<circle x="0.0038" y="2.1898" radius="0.508" width="0.1524" layer="21"/>
<pad name="1" x="-5" y="-1.29" drill="1.1938" shape="long" rot="R90"/>
<pad name="2" x="0" y="-1.29" drill="1.1938" shape="long" rot="R90"/>
<pad name="3" x="5" y="-1.29" drill="1.1938" shape="long" rot="R90"/>
<text x="-6.905" y="0.615" size="1.27" layer="51" ratio="10">1</text>
<text x="-1.8504" y="0.5642" size="1.27" layer="51" ratio="10">2</text>
<text x="3.1534" y="0.615" size="1.27" layer="51" ratio="10">3</text>
<text x="-5.3048" y="-4.9476" size="1.27" layer="27" ratio="10">&gt;VALUE</text>
<text x="-5.6858" y="-7.4622" size="1.27" layer="25" ratio="10">&gt;NAME</text>
</package>
</packages>
<symbols>
<symbol name="KL">
<circle x="1.27" y="0" radius="1.27" width="0.254" layer="94"/>
<text x="0" y="0.889" size="1.778" layer="95" rot="R180">&gt;NAME</text>
<pin name="KL" x="5.08" y="0" visible="off" length="short" direction="pas" rot="R180"/>
</symbol>
<symbol name="KL+V">
<circle x="1.27" y="0" radius="1.27" width="0.254" layer="94"/>
<text x="-2.54" y="-3.683" size="1.778" layer="96">&gt;VALUE</text>
<text x="0" y="0.889" size="1.778" layer="95" rot="R180">&gt;NAME</text>
<pin name="KL" x="5.08" y="0" visible="off" length="short" direction="pas" rot="R180"/>
</symbol>
</symbols>
<devicesets>
<deviceset name="W237-102" prefix="X" uservalue="yes">
<description>&lt;b&gt;WAGO SCREW CLAMP&lt;/b&gt;</description>
<gates>
<gate name="-1" symbol="KL" x="0" y="5.08" addlevel="always"/>
<gate name="-2" symbol="KL+V" x="0" y="0" addlevel="always"/>
</gates>
<devices>
<device name="" package="W237-102">
<connects>
<connect gate="-1" pin="KL" pad="1"/>
<connect gate="-2" pin="KL" pad="2"/>
</connects>
<technologies>
<technology name="">
<attribute name="MF" value="" constant="no"/>
<attribute name="MPN" value="237-102" constant="no"/>
<attribute name="OC_FARNELL" value="unknown" constant="no"/>
<attribute name="OC_NEWARK" value="70K9898" constant="no"/>
</technology>
</technologies>
</device>
</devices>
</deviceset>
<deviceset name="W237-103" prefix="X" uservalue="yes">
<description>&lt;b&gt;WAGO SCREW CLAMP&lt;/b&gt;</description>
<gates>
<gate name="-1" symbol="KL" x="0" y="5.08" addlevel="always"/>
<gate name="-2" symbol="KL" x="0" y="0" addlevel="always"/>
<gate name="-3" symbol="KL+V" x="0" y="-5.08" addlevel="always"/>
</gates>
<devices>
<device name="" package="W237-103">
<connects>
<connect gate="-1" pin="KL" pad="1"/>
<connect gate="-2" pin="KL" pad="2"/>
<connect gate="-3" pin="KL" pad="3"/>
</connects>
<technologies>
<technology name="">
<attribute name="MF" value="" constant="no"/>
<attribute name="MPN" value="237-103" constant="no"/>
<attribute name="OC_FARNELL" value="unknown" constant="no"/>
<attribute name="OC_NEWARK" value="18M7116" constant="no"/>
</technology>
</technologies>
</device>
</devices>
</deviceset>
</devicesets>
</library>
</libraries>
<attributes>
</attributes>
<variantdefs>
</variantdefs>
<classes>
<class number="0" name="default" width="0" drill="0">
</class>
</classes>
<parts>
<part name="RELAY" library="UNLibrary" deviceset="RELAY" device=""/>
<part name="X1" library="con-wago-500" deviceset="W237-102" device=""/>
<part name="X2" library="con-wago-500" deviceset="W237-103" device=""/>
</parts>
<sheets>
<sheet>
<plain>
</plain>
<instances>
<instance part="RELAY" gate="1" x="53.34" y="58.42" rot="R180"/>
<instance part="RELAY" gate="2" x="71.12" y="58.42"/>
<instance part="X1" gate="-1" x="30.48" y="60.96"/>
<instance part="X1" gate="-2" x="30.48" y="55.88"/>
<instance part="X2" gate="-1" x="96.52" y="55.88" rot="R180"/>
<instance part="X2" gate="-2" x="96.52" y="60.96" rot="R180"/>
<instance part="X2" gate="-3" x="96.52" y="66.04" rot="R180"/>
</instances>
<busses>
</busses>
<nets>
<net name="N$1" class="0">
<segment>
<pinref part="X1" gate="-2" pin="KL"/>
<wire x1="35.56" y1="55.88" x2="40.64" y2="55.88" width="0.1524" layer="91"/>
<wire x1="40.64" y1="55.88" x2="40.64" y2="48.26" width="0.1524" layer="91"/>
<wire x1="40.64" y1="48.26" x2="53.34" y2="48.26" width="0.1524" layer="91"/>
<pinref part="RELAY" gate="1" pin="1"/>
<wire x1="53.34" y1="48.26" x2="53.34" y2="53.34" width="0.1524" layer="91"/>
</segment>
</net>
<net name="N$2" class="0">
<segment>
<pinref part="X1" gate="-1" pin="KL"/>
<wire x1="35.56" y1="60.96" x2="40.64" y2="60.96" width="0.1524" layer="91"/>
<wire x1="40.64" y1="60.96" x2="40.64" y2="66.04" width="0.1524" layer="91"/>
<wire x1="40.64" y1="66.04" x2="53.34" y2="66.04" width="0.1524" layer="91"/>
<pinref part="RELAY" gate="1" pin="2"/>
<wire x1="53.34" y1="63.5" x2="53.34" y2="66.04" width="0.1524" layer="91"/>
</segment>
</net>
<net name="N$3" class="0">
<segment>
<pinref part="X2" gate="-1" pin="KL"/>
<wire x1="91.44" y1="55.88" x2="88.9" y2="55.88" width="0.1524" layer="91"/>
<wire x1="88.9" y1="55.88" x2="88.9" y2="45.72" width="0.1524" layer="91"/>
<pinref part="RELAY" gate="2" pin="P"/>
<wire x1="88.9" y1="45.72" x2="71.12" y2="45.72" width="0.1524" layer="91"/>
<wire x1="71.12" y1="45.72" x2="71.12" y2="55.88" width="0.1524" layer="91"/>
</segment>
</net>
<net name="N$4" class="0">
<segment>
<pinref part="RELAY" gate="2" pin="S"/>
<wire x1="66.04" y1="63.5" x2="63.5" y2="63.5" width="0.1524" layer="91"/>
<wire x1="63.5" y1="63.5" x2="63.5" y2="71.12" width="0.1524" layer="91"/>
<pinref part="X2" gate="-3" pin="KL"/>
<wire x1="63.5" y1="71.12" x2="91.44" y2="71.12" width="0.1524" layer="91"/>
<wire x1="91.44" y1="71.12" x2="91.44" y2="66.04" width="0.1524" layer="91"/>
</segment>
</net>
<net name="N$5" class="0">
<segment>
<pinref part="RELAY" gate="2" pin="O"/>
<wire x1="76.2" y1="63.5" x2="86.36" y2="63.5" width="0.1524" layer="91"/>
<wire x1="86.36" y1="63.5" x2="86.36" y2="60.96" width="0.1524" layer="91"/>
<pinref part="X2" gate="-2" pin="KL"/>
<wire x1="86.36" y1="60.96" x2="91.44" y2="60.96" width="0.1524" layer="91"/>
</segment>
</net>
</nets>
</sheet>
</sheets>
</schematic>
</drawing>
</eagle>
