<?xml version="1.0" encoding="utf-8"?>
<!DOCTYPE eagle SYSTEM "eagle.dtd">
<eagle version="7.6.0">
<drawing>
<settings>
<setting alwaysvectorfont="no"/>
<setting verticaltext="up"/>
</settings>
<grid distance="0.5" unitdist="mm" unit="mm" style="lines" multiple="1" display="yes" altdistance="0.1" altunitdist="mm" altunit="mm"/>
<layers>
<layer number="1" name="Top" color="4" fill="1" visible="yes" active="yes"/>
<layer number="2" name="Route2" color="1" fill="3" visible="no" active="no"/>
<layer number="3" name="Route3" color="4" fill="3" visible="no" active="no"/>
<layer number="4" name="Route4" color="1" fill="4" visible="no" active="no"/>
<layer number="5" name="Route5" color="4" fill="4" visible="no" active="no"/>
<layer number="6" name="Route6" color="1" fill="8" visible="no" active="no"/>
<layer number="7" name="Route7" color="4" fill="8" visible="no" active="no"/>
<layer number="8" name="Route8" color="1" fill="2" visible="no" active="no"/>
<layer number="9" name="Route9" color="4" fill="2" visible="no" active="no"/>
<layer number="10" name="Route10" color="1" fill="7" visible="no" active="no"/>
<layer number="11" name="Route11" color="4" fill="7" visible="no" active="no"/>
<layer number="12" name="Route12" color="1" fill="5" visible="no" active="no"/>
<layer number="13" name="Route13" color="4" fill="5" visible="no" active="no"/>
<layer number="14" name="Route14" color="1" fill="6" visible="no" active="no"/>
<layer number="15" name="Route15" color="4" fill="6" visible="no" active="no"/>
<layer number="16" name="Bottom" color="1" fill="1" visible="yes" active="yes"/>
<layer number="17" name="Pads" color="2" fill="1" visible="yes" active="yes"/>
<layer number="18" name="Vias" color="2" fill="1" visible="yes" active="yes"/>
<layer number="19" name="Unrouted" color="6" fill="1" visible="yes" active="yes"/>
<layer number="20" name="Dimension" color="15" fill="1" visible="yes" active="yes"/>
<layer number="21" name="tPlace" color="7" fill="1" visible="yes" active="yes"/>
<layer number="22" name="bPlace" color="7" fill="1" visible="yes" active="yes"/>
<layer number="23" name="tOrigins" color="15" fill="1" visible="yes" active="yes"/>
<layer number="24" name="bOrigins" color="15" fill="1" visible="yes" active="yes"/>
<layer number="25" name="tNames" color="7" fill="1" visible="yes" active="yes"/>
<layer number="26" name="bNames" color="7" fill="1" visible="yes" active="yes"/>
<layer number="27" name="tValues" color="7" fill="1" visible="yes" active="yes"/>
<layer number="28" name="bValues" color="7" fill="1" visible="yes" active="yes"/>
<layer number="29" name="tStop" color="7" fill="3" visible="no" active="yes"/>
<layer number="30" name="bStop" color="7" fill="6" visible="no" active="yes"/>
<layer number="31" name="tCream" color="7" fill="4" visible="no" active="yes"/>
<layer number="32" name="bCream" color="7" fill="5" visible="no" active="yes"/>
<layer number="33" name="tFinish" color="6" fill="3" visible="no" active="yes"/>
<layer number="34" name="bFinish" color="6" fill="6" visible="no" active="yes"/>
<layer number="35" name="tGlue" color="7" fill="4" visible="no" active="yes"/>
<layer number="36" name="bGlue" color="7" fill="5" visible="no" active="yes"/>
<layer number="37" name="tTest" color="7" fill="1" visible="no" active="yes"/>
<layer number="38" name="bTest" color="7" fill="1" visible="no" active="yes"/>
<layer number="39" name="tKeepout" color="4" fill="11" visible="yes" active="yes"/>
<layer number="40" name="bKeepout" color="1" fill="11" visible="yes" active="yes"/>
<layer number="41" name="tRestrict" color="4" fill="10" visible="yes" active="yes"/>
<layer number="42" name="bRestrict" color="1" fill="10" visible="yes" active="yes"/>
<layer number="43" name="vRestrict" color="2" fill="10" visible="yes" active="yes"/>
<layer number="44" name="Drills" color="7" fill="1" visible="no" active="yes"/>
<layer number="45" name="Holes" color="7" fill="1" visible="no" active="yes"/>
<layer number="46" name="Milling" color="3" fill="1" visible="no" active="yes"/>
<layer number="47" name="Measures" color="7" fill="1" visible="no" active="yes"/>
<layer number="48" name="Document" color="7" fill="1" visible="yes" active="yes"/>
<layer number="49" name="Reference" color="7" fill="1" visible="yes" active="yes"/>
<layer number="51" name="tDocu" color="7" fill="1" visible="yes" active="yes"/>
<layer number="52" name="bDocu" color="7" fill="1" visible="yes" active="yes"/>
<layer number="90" name="Modules" color="5" fill="1" visible="no" active="no"/>
<layer number="91" name="Nets" color="2" fill="1" visible="no" active="no"/>
<layer number="92" name="Busses" color="1" fill="1" visible="no" active="no"/>
<layer number="93" name="Pins" color="2" fill="1" visible="no" active="no"/>
<layer number="94" name="Symbols" color="4" fill="1" visible="no" active="no"/>
<layer number="95" name="Names" color="7" fill="1" visible="no" active="no"/>
<layer number="96" name="Values" color="7" fill="1" visible="no" active="no"/>
<layer number="97" name="Info" color="7" fill="1" visible="no" active="no"/>
<layer number="98" name="Guide" color="6" fill="1" visible="no" active="no"/>
</layers>
<board>
<plain>
<wire x1="0" y1="0" x2="19" y2="0" width="0" layer="20"/>
<wire x1="19" y1="0" x2="19" y2="40" width="0" layer="20"/>
<wire x1="19" y1="40" x2="0" y2="40" width="0" layer="20"/>
<wire x1="0" y1="40" x2="0" y2="0" width="0" layer="20"/>
<text x="13" y="1" size="1.778" layer="21">NO</text>
<text x="8" y="1" size="1.778" layer="21">NC</text>
<text x="2" y="1" size="1.778" layer="21">COM</text>
<text x="4.5" y="37" size="1.778" layer="21">VDD</text>
<text x="10.5" y="37" size="1.778" layer="21">GND</text>
</plain>
<libraries>
<library name="UNLibrary">
<packages>
<package name="RELAY">
<description>&lt;b&gt;AUTOMOTIVE QUIET RELAY&lt;/b&gt; NAiS&lt;p&gt;
Source: http://www.mew-europe.com/.. en_ds_61208_0000.pdf</description>
<pad name="NO" x="-6.05" y="6" drill="1.5" rot="R180"/>
<pad name="NC" x="-6.05" y="-6" drill="1.5" rot="R180"/>
<pad name="1" x="6.15" y="-6" drill="1.5" rot="R180"/>
<pad name="2" x="6.15" y="6" drill="1.5" rot="R180"/>
<pad name="C" x="8.15" y="0" drill="1.5" rot="R180"/>
<text x="-2.54" y="5.08" size="1.27" layer="25">&gt;NAME</text>
<text x="-2.54" y="-6.35" size="1.27" layer="27">&gt;VALUE</text>
<wire x1="-9.55" y1="-7.75" x2="9.55" y2="-7.75" width="0.127" layer="21"/>
<wire x1="9.55" y1="-7.75" x2="9.55" y2="7.75" width="0.127" layer="21"/>
<wire x1="9.55" y1="7.75" x2="-9.55" y2="7.75" width="0.127" layer="21"/>
<wire x1="-9.55" y1="7.75" x2="-9.55" y2="-7.75" width="0.127" layer="21"/>
<wire x1="-6.35" y1="2.54" x2="-6.35" y2="4.445" width="0.127" layer="21"/>
<wire x1="-6.35" y1="-4.445" x2="-6.35" y2="-2.54" width="0.127" layer="21"/>
<wire x1="-2.54" y1="0" x2="-6.35" y2="-2.54" width="0.127" layer="21"/>
<wire x1="5.08" y1="-4.445" x2="5.08" y2="-3.175" width="0.127" layer="21"/>
<wire x1="5.08" y1="-3.175" x2="3.81" y2="-1.905" width="0.127" layer="21" curve="90"/>
<wire x1="3.81" y1="-1.905" x2="3.81" y2="-3.175" width="0.127" layer="21" curve="180"/>
<wire x1="3.81" y1="-3.175" x2="5.08" y2="-1.905" width="0.127" layer="21" curve="90"/>
<wire x1="5.08" y1="-1.905" x2="5.08" y2="-0.635" width="0.127" layer="21"/>
<wire x1="5.08" y1="-0.635" x2="3.81" y2="0.635" width="0.127" layer="21" curve="90"/>
<wire x1="3.81" y1="0.635" x2="3.81" y2="-0.635" width="0.127" layer="21" curve="180"/>
<wire x1="3.81" y1="-0.635" x2="5.08" y2="0.635" width="0.127" layer="21" curve="90"/>
<wire x1="5.08" y1="0.635" x2="5.08" y2="1.905" width="0.127" layer="21"/>
<wire x1="5.08" y1="1.905" x2="3.81" y2="3.175" width="0.127" layer="21" curve="90"/>
<wire x1="3.81" y1="3.175" x2="3.81" y2="1.905" width="0.127" layer="21" curve="180"/>
<wire x1="3.81" y1="1.905" x2="5.08" y2="3.175" width="0.127" layer="21" curve="90"/>
<wire x1="5.08" y1="3.175" x2="5.08" y2="3.81" width="0.127" layer="21"/>
<wire x1="-2.54" y1="0" x2="6.35" y2="0" width="0.127" layer="21"/>
<circle x="-6.35" y="2.54" radius="0.635" width="0.127" layer="21"/>
<circle x="-6.35" y="-2.54" radius="0.635" width="0.127" layer="21"/>
<circle x="5.08" y="3.81" radius="0.635" width="0.127" layer="21"/>
<circle x="6.35" y="0" radius="0.635" width="0.127" layer="21"/>
<circle x="5.08" y="-4.445" radius="0.635" width="0.127" layer="21"/>
</package>
</packages>
</library>
<library name="con-wago-500">
<description>&lt;b&gt;Wago Screw Clamps&lt;/b&gt;&lt;p&gt;
Grid 5.00 mm&lt;p&gt;
&lt;author&gt;Created by librarian@cadsoft.de&lt;/author&gt;</description>
<packages>
<package name="W237-102">
<description>&lt;b&gt;WAGO SCREW CLAMP&lt;/b&gt;</description>
<wire x1="-3.491" y1="-2.286" x2="-1.484" y2="-0.279" width="0.254" layer="51"/>
<wire x1="1.488" y1="-2.261" x2="3.469" y2="-0.254" width="0.254" layer="51"/>
<wire x1="-4.989" y1="-5.461" x2="4.993" y2="-5.461" width="0.1524" layer="21"/>
<wire x1="4.993" y1="3.734" x2="4.993" y2="3.531" width="0.1524" layer="21"/>
<wire x1="4.993" y1="3.734" x2="-4.989" y2="3.734" width="0.1524" layer="21"/>
<wire x1="-4.989" y1="-5.461" x2="-4.989" y2="-3.073" width="0.1524" layer="21"/>
<wire x1="-4.989" y1="-3.073" x2="-3.389" y2="-3.073" width="0.1524" layer="21"/>
<wire x1="-3.389" y1="-3.073" x2="-1.611" y2="-3.073" width="0.1524" layer="51"/>
<wire x1="-1.611" y1="-3.073" x2="1.615" y2="-3.073" width="0.1524" layer="21"/>
<wire x1="3.393" y1="-3.073" x2="4.993" y2="-3.073" width="0.1524" layer="21"/>
<wire x1="-4.989" y1="-3.073" x2="-4.989" y2="3.531" width="0.1524" layer="21"/>
<wire x1="4.993" y1="-3.073" x2="4.993" y2="-5.461" width="0.1524" layer="21"/>
<wire x1="-4.989" y1="3.531" x2="4.993" y2="3.531" width="0.1524" layer="21"/>
<wire x1="-4.989" y1="3.531" x2="-4.989" y2="3.734" width="0.1524" layer="21"/>
<wire x1="4.993" y1="3.531" x2="4.993" y2="-3.073" width="0.1524" layer="21"/>
<wire x1="1.615" y1="-3.073" x2="3.393" y2="-3.073" width="0.1524" layer="51"/>
<circle x="-2.5" y="-1.27" radius="1.4986" width="0.1524" layer="51"/>
<circle x="-2.5" y="2.2098" radius="0.508" width="0.1524" layer="21"/>
<circle x="2.5038" y="-1.27" radius="1.4986" width="0.1524" layer="51"/>
<circle x="2.5038" y="2.2098" radius="0.508" width="0.1524" layer="21"/>
<pad name="1" x="-2.5" y="-1.27" drill="1.1938" shape="long" rot="R90"/>
<pad name="2" x="2.5" y="-1.27" drill="1.1938" shape="long" rot="R90"/>
<text x="-5.04" y="-7.62" size="1.27" layer="27" ratio="10">&gt;VALUE</text>
<text x="-3.8462" y="-5.0038" size="1.27" layer="25" ratio="10">&gt;NAME</text>
<text x="-4.532" y="0.635" size="1.27" layer="21" ratio="10">1</text>
<text x="0.421" y="0.635" size="1.27" layer="21" ratio="10">2</text>
</package>
<package name="W237-103">
<description>&lt;b&gt;WAGO SCREW CLAMP&lt;/b&gt;</description>
<wire x1="4.093" y1="-2.255" x2="5.897" y2="-0.299" width="0.254" layer="51"/>
<wire x1="-0.911" y1="-2.331" x2="0.994" y2="-0.299" width="0.254" layer="51"/>
<wire x1="-5.991" y1="-2.306" x2="-3.984" y2="-0.299" width="0.254" layer="51"/>
<wire x1="-7.489" y1="-5.481" x2="7.497" y2="-5.481" width="0.1524" layer="21"/>
<wire x1="7.497" y1="3.714" x2="7.497" y2="3.511" width="0.1524" layer="21"/>
<wire x1="7.497" y1="3.714" x2="-7.489" y2="3.714" width="0.1524" layer="21"/>
<wire x1="-7.489" y1="-5.481" x2="-7.489" y2="-3.093" width="0.1524" layer="21"/>
<wire x1="-7.489" y1="-3.093" x2="-5.889" y2="-3.093" width="0.1524" layer="21"/>
<wire x1="-5.889" y1="-3.093" x2="-4.111" y2="-3.093" width="0.1524" layer="51"/>
<wire x1="-4.111" y1="-3.093" x2="-0.885" y2="-3.093" width="0.1524" layer="21"/>
<wire x1="0.893" y1="-3.093" x2="4.119" y2="-3.093" width="0.1524" layer="21"/>
<wire x1="5.897" y1="-3.093" x2="7.497" y2="-3.093" width="0.1524" layer="21"/>
<wire x1="-7.489" y1="-3.093" x2="-7.489" y2="3.511" width="0.1524" layer="21"/>
<wire x1="7.497" y1="-3.093" x2="7.497" y2="-5.481" width="0.1524" layer="21"/>
<wire x1="7.497" y1="3.511" x2="-7.489" y2="3.511" width="0.1524" layer="21"/>
<wire x1="7.497" y1="3.511" x2="7.497" y2="-3.093" width="0.1524" layer="21"/>
<wire x1="-7.489" y1="3.511" x2="-7.489" y2="3.714" width="0.1524" layer="21"/>
<wire x1="-0.885" y1="-3.093" x2="0.893" y2="-3.093" width="0.1524" layer="51"/>
<wire x1="4.119" y1="-3.093" x2="5.897" y2="-3.093" width="0.1524" layer="51"/>
<circle x="-5" y="-1.29" radius="1.4986" width="0.1524" layer="51"/>
<circle x="5.0076" y="-1.29" radius="1.4986" width="0.1524" layer="51"/>
<circle x="-5" y="2.1898" radius="0.508" width="0.1524" layer="21"/>
<circle x="5.0076" y="2.1898" radius="0.508" width="0.1524" layer="21"/>
<circle x="0.0038" y="-1.29" radius="1.4986" width="0.1524" layer="51"/>
<circle x="0.0038" y="2.1898" radius="0.508" width="0.1524" layer="21"/>
<pad name="1" x="-5" y="-1.29" drill="1.1938" shape="long" rot="R90"/>
<pad name="2" x="0" y="-1.29" drill="1.1938" shape="long" rot="R90"/>
<pad name="3" x="5" y="-1.29" drill="1.1938" shape="long" rot="R90"/>
<text x="-6.905" y="0.615" size="1.27" layer="51" ratio="10">1</text>
<text x="-1.8504" y="0.5642" size="1.27" layer="51" ratio="10">2</text>
<text x="3.1534" y="0.615" size="1.27" layer="51" ratio="10">3</text>
<text x="-5.3048" y="-4.9476" size="1.27" layer="27" ratio="10">&gt;VALUE</text>
<text x="-5.6858" y="-7.4622" size="1.27" layer="25" ratio="10">&gt;NAME</text>
</package>
</packages>
</library>
</libraries>
<attributes>
</attributes>
<variantdefs>
</variantdefs>
<classes>
<class number="0" name="default" width="0" drill="0">
</class>
</classes>
<designrules name="default">
<description language="de">&lt;b&gt;EAGLE Design Rules&lt;/b&gt;
&lt;p&gt;
Die Standard-Design-Rules sind so gewählt, dass sie für 
die meisten Anwendungen passen. Sollte ihre Platine 
besondere Anforderungen haben, treffen Sie die erforderlichen
Einstellungen hier und speichern die Design Rules unter 
einem neuen Namen ab.</description>
<description language="en">&lt;b&gt;EAGLE Design Rules&lt;/b&gt;
&lt;p&gt;
The default Design Rules have been set to cover
a wide range of applications. Your particular design
may have different requirements, so please make the
necessary adjustments and save your customized
design rules under a new name.</description>
<param name="layerSetup" value="(1*16)"/>
<param name="mtCopper" value="0.035mm 0.035mm 0.035mm 0.035mm 0.035mm 0.035mm 0.035mm 0.035mm 0.035mm 0.035mm 0.035mm 0.035mm 0.035mm 0.035mm 0.035mm 0.035mm"/>
<param name="mtIsolate" value="1.5mm 0.15mm 0.2mm 0.15mm 0.2mm 0.15mm 0.2mm 0.15mm 0.2mm 0.15mm 0.2mm 0.15mm 0.2mm 0.15mm 0.2mm"/>
<param name="mdWireWire" value="8mil"/>
<param name="mdWirePad" value="8mil"/>
<param name="mdWireVia" value="8mil"/>
<param name="mdPadPad" value="8mil"/>
<param name="mdPadVia" value="8mil"/>
<param name="mdViaVia" value="8mil"/>
<param name="mdSmdPad" value="8mil"/>
<param name="mdSmdVia" value="8mil"/>
<param name="mdSmdSmd" value="8mil"/>
<param name="mdViaViaSameLayer" value="8mil"/>
<param name="mnLayersViaInSmd" value="2"/>
<param name="mdCopperDimension" value="40mil"/>
<param name="mdDrill" value="8mil"/>
<param name="mdSmdStop" value="0mil"/>
<param name="msWidth" value="10mil"/>
<param name="msDrill" value="24mil"/>
<param name="msMicroVia" value="9.99mm"/>
<param name="msBlindViaRatio" value="0.5"/>
<param name="rvPadTop" value="0.25"/>
<param name="rvPadInner" value="0.25"/>
<param name="rvPadBottom" value="0.25"/>
<param name="rvViaOuter" value="0.25"/>
<param name="rvViaInner" value="0.25"/>
<param name="rvMicroViaOuter" value="0.25"/>
<param name="rvMicroViaInner" value="0.25"/>
<param name="rlMinPadTop" value="10mil"/>
<param name="rlMaxPadTop" value="20mil"/>
<param name="rlMinPadInner" value="10mil"/>
<param name="rlMaxPadInner" value="20mil"/>
<param name="rlMinPadBottom" value="10mil"/>
<param name="rlMaxPadBottom" value="20mil"/>
<param name="rlMinViaOuter" value="8mil"/>
<param name="rlMaxViaOuter" value="20mil"/>
<param name="rlMinViaInner" value="8mil"/>
<param name="rlMaxViaInner" value="20mil"/>
<param name="rlMinMicroViaOuter" value="4mil"/>
<param name="rlMaxMicroViaOuter" value="20mil"/>
<param name="rlMinMicroViaInner" value="4mil"/>
<param name="rlMaxMicroViaInner" value="20mil"/>
<param name="psTop" value="-1"/>
<param name="psBottom" value="-1"/>
<param name="psFirst" value="-1"/>
<param name="psElongationLong" value="100"/>
<param name="psElongationOffset" value="100"/>
<param name="mvStopFrame" value="1"/>
<param name="mvCreamFrame" value="0"/>
<param name="mlMinStopFrame" value="4mil"/>
<param name="mlMaxStopFrame" value="4mil"/>
<param name="mlMinCreamFrame" value="0mil"/>
<param name="mlMaxCreamFrame" value="0mil"/>
<param name="mlViaStopLimit" value="0mil"/>
<param name="srRoundness" value="0"/>
<param name="srMinRoundness" value="0mil"/>
<param name="srMaxRoundness" value="0mil"/>
<param name="slThermalIsolate" value="10mil"/>
<param name="slThermalsForVias" value="0"/>
<param name="dpMaxLengthDifference" value="10mm"/>
<param name="dpGapFactor" value="2.5"/>
<param name="checkGrid" value="0"/>
<param name="checkAngle" value="0"/>
<param name="checkFont" value="1"/>
<param name="checkRestrict" value="1"/>
<param name="useDiameter" value="13"/>
<param name="maxErrors" value="50"/>
</designrules>
<autorouter>
<pass name="Default">
<param name="RoutingGrid" value="50mil"/>
<param name="AutoGrid" value="1"/>
<param name="Efforts" value="0"/>
<param name="TopRouterVariant" value="1"/>
<param name="tpViaShape" value="round"/>
<param name="PrefDir.1" value="a"/>
<param name="PrefDir.2" value="0"/>
<param name="PrefDir.3" value="0"/>
<param name="PrefDir.4" value="0"/>
<param name="PrefDir.5" value="0"/>
<param name="PrefDir.6" value="0"/>
<param name="PrefDir.7" value="0"/>
<param name="PrefDir.8" value="0"/>
<param name="PrefDir.9" value="0"/>
<param name="PrefDir.10" value="0"/>
<param name="PrefDir.11" value="0"/>
<param name="PrefDir.12" value="0"/>
<param name="PrefDir.13" value="0"/>
<param name="PrefDir.14" value="0"/>
<param name="PrefDir.15" value="0"/>
<param name="PrefDir.16" value="a"/>
<param name="cfVia" value="8"/>
<param name="cfNonPref" value="5"/>
<param name="cfChangeDir" value="2"/>
<param name="cfOrthStep" value="2"/>
<param name="cfDiagStep" value="3"/>
<param name="cfExtdStep" value="0"/>
<param name="cfBonusStep" value="1"/>
<param name="cfMalusStep" value="1"/>
<param name="cfPadImpact" value="4"/>
<param name="cfSmdImpact" value="4"/>
<param name="cfBusImpact" value="0"/>
<param name="cfHugging" value="3"/>
<param name="cfAvoid" value="4"/>
<param name="cfPolygon" value="10"/>
<param name="cfBase.1" value="0"/>
<param name="cfBase.2" value="1"/>
<param name="cfBase.3" value="1"/>
<param name="cfBase.4" value="1"/>
<param name="cfBase.5" value="1"/>
<param name="cfBase.6" value="1"/>
<param name="cfBase.7" value="1"/>
<param name="cfBase.8" value="1"/>
<param name="cfBase.9" value="1"/>
<param name="cfBase.10" value="1"/>
<param name="cfBase.11" value="1"/>
<param name="cfBase.12" value="1"/>
<param name="cfBase.13" value="1"/>
<param name="cfBase.14" value="1"/>
<param name="cfBase.15" value="1"/>
<param name="cfBase.16" value="0"/>
<param name="mnVias" value="20"/>
<param name="mnSegments" value="9999"/>
<param name="mnExtdSteps" value="9999"/>
<param name="mnRipupLevel" value="10"/>
<param name="mnRipupSteps" value="100"/>
<param name="mnRipupTotal" value="100"/>
</pass>
<pass name="Follow-me" refer="Default" active="yes">
</pass>
<pass name="Busses" refer="Default" active="yes">
<param name="cfNonPref" value="4"/>
<param name="cfBusImpact" value="4"/>
<param name="cfHugging" value="0"/>
<param name="mnVias" value="0"/>
</pass>
<pass name="Route" refer="Default" active="yes">
</pass>
<pass name="Optimize1" refer="Default" active="yes">
<param name="cfVia" value="99"/>
<param name="cfExtdStep" value="10"/>
<param name="cfHugging" value="1"/>
<param name="mnExtdSteps" value="1"/>
<param name="mnRipupLevel" value="0"/>
</pass>
<pass name="Optimize2" refer="Optimize1" active="yes">
<param name="cfNonPref" value="0"/>
<param name="cfChangeDir" value="6"/>
<param name="cfExtdStep" value="0"/>
<param name="cfBonusStep" value="2"/>
<param name="cfMalusStep" value="2"/>
<param name="cfPadImpact" value="2"/>
<param name="cfSmdImpact" value="2"/>
<param name="cfHugging" value="0"/>
</pass>
<pass name="Optimize3" refer="Optimize2" active="yes">
<param name="cfChangeDir" value="8"/>
<param name="cfPadImpact" value="0"/>
<param name="cfSmdImpact" value="0"/>
</pass>
<pass name="Optimize4" refer="Optimize3" active="yes">
<param name="cfChangeDir" value="25"/>
</pass>
</autorouter>
<elements>
<element name="RELAY" library="UNLibrary" package="RELAY" value="RELAY" x="9.5" y="19.5" smashed="yes">
<attribute name="MPN" value="" x="9.5" y="19.5" size="1.778" layer="27" display="off"/>
<attribute name="OC_FARNELL" value="unknown" x="9.5" y="19.5" size="1.778" layer="27" display="off"/>
<attribute name="OC_NEWARK" value="unknown" x="9.5" y="19.5" size="1.778" layer="27" display="off"/>
<attribute name="MF" value="" x="9.5" y="19.5" size="1.778" layer="27" display="off"/>
</element>
<element name="X1" library="con-wago-500" package="W237-102" value="" x="9.5" y="31.5" smashed="yes" rot="R180">
<attribute name="MPN" value="237-102" x="9.5" y="31.5" size="1.778" layer="27" rot="R180" display="off"/>
<attribute name="OC_FARNELL" value="unknown" x="9.5" y="31.5" size="1.778" layer="27" rot="R180" display="off"/>
<attribute name="OC_NEWARK" value="70K9898" x="9.5" y="31.5" size="1.778" layer="27" rot="R180" display="off"/>
<attribute name="MF" value="" x="9.5" y="31.5" size="1.778" layer="27" rot="R180" display="off"/>
<attribute name="VALUE" x="14.54" y="39.12" size="1.27" layer="27" ratio="10" rot="R180"/>
</element>
<element name="X2" library="con-wago-500" package="W237-103" value="" x="9.5" y="7.5" smashed="yes">
<attribute name="MPN" value="237-103" x="9.5" y="7.5" size="1.778" layer="27" display="off"/>
<attribute name="OC_FARNELL" value="unknown" x="9.5" y="7.5" size="1.778" layer="27" display="off"/>
<attribute name="OC_NEWARK" value="18M7116" x="9.5" y="7.5" size="1.778" layer="27" display="off"/>
<attribute name="MF" value="" x="9.5" y="7.5" size="1.778" layer="27" display="off"/>
<attribute name="VALUE" x="4.1952" y="2.5524" size="1.27" layer="27" ratio="10"/>
</element>
</elements>
<signals>
<signal name="N$1">
<contactref element="X1" pad="2"/>
<contactref element="RELAY" pad="1"/>
<wire x1="15.65" y1="13.5" x2="7" y2="22.15" width="0.4064" layer="1"/>
<wire x1="7" y1="22.15" x2="7" y2="32.77" width="0.4064" layer="1"/>
</signal>
<signal name="N$2">
<contactref element="X1" pad="1"/>
<contactref element="RELAY" pad="2"/>
<wire x1="15.65" y1="25.5" x2="12" y2="29.15" width="0.4064" layer="1"/>
<wire x1="12" y1="29.15" x2="12" y2="32.77" width="0.4064" layer="1"/>
</signal>
<signal name="N$3">
<contactref element="X2" pad="1"/>
<contactref element="RELAY" pad="C"/>
<wire x1="4.5" y1="6.21" x2="10" y2="11.71" width="0.4064" layer="16"/>
<wire x1="10" y1="11.71" x2="10" y2="16" width="0.4064" layer="16"/>
<wire x1="10" y1="16" x2="13.5" y2="19.5" width="0.4064" layer="16"/>
<wire x1="13.5" y1="19.5" x2="17.65" y2="19.5" width="0.4064" layer="16"/>
</signal>
<signal name="N$4">
<contactref element="RELAY" pad="NO"/>
<contactref element="X2" pad="3"/>
<wire x1="14.5" y1="6.21" x2="14.5" y2="9" width="0.4064" layer="1"/>
<wire x1="14.5" y1="9" x2="3.45" y2="20.05" width="0.4064" layer="1"/>
<wire x1="3.45" y1="20.05" x2="3.45" y2="25.5" width="0.4064" layer="1"/>
</signal>
<signal name="N$5">
<contactref element="RELAY" pad="NC"/>
<contactref element="X2" pad="2"/>
<wire x1="3.45" y1="13.5" x2="7" y2="13.5" width="0.4064" layer="1"/>
<wire x1="7" y1="13.5" x2="9.5" y2="11" width="0.4064" layer="1"/>
<wire x1="9.5" y1="11" x2="9.5" y2="6.21" width="0.4064" layer="1"/>
</signal>
<signal name="GND">
<polygon width="0.4064" layer="1">
<vertex x="-0.5" y="40.5"/>
<vertex x="-0.5" y="-0.5"/>
<vertex x="19.5" y="-0.5"/>
<vertex x="19.5" y="40.5"/>
</polygon>
<polygon width="0.4064" layer="16">
<vertex x="-0.5" y="40.5"/>
<vertex x="-0.5" y="-0.5"/>
<vertex x="19.5" y="-0.5"/>
<vertex x="19.5" y="40.5"/>
</polygon>
</signal>
</signals>
</board>
</drawing>
</eagle>
